{
  "project_info": {
    "project_number": "572042376333",
    "project_id": "battle-hero-dc038",
    "storage_bucket": "battle-hero-dc038.appspot.com"
  },
  "client": [
    {
      "client_info": {
        "mobilesdk_app_id": "1:572042376333:android:11c731905443f00f2c1ec4",
        "android_client_info": {
          "package_name": "com.WolfAthena.BattleHero"
        }
      },
      "oauth_client": [
        {
          "client_id": "572042376333-amj2pvqf4a4dp49m2gcn1is8oq17cpju.apps.googleusercontent.com",
          "client_type": 1,
          "android_info": {
            "package_name": "com.WolfAthena.BattleHero",
            "certificate_hash": "2a7389e6fdfffe73ef4444c1bdb1c137c4b9ef65"
          }
        },
        {
          "client_id": "572042376333-hp7bhb1h9vah6sd3cn0m5rsd27bc9lnt.apps.googleusercontent.com",
          "client_type": 3
        }
      ],
      "api_key": [
        {
          "current_key": "AIzaSyCGOFEsonp7c9GcTBXYULLs-FPPKO6dJH4"
        }
      ],
      "services": {
        "appinvite_service": {
          "other_platform_oauth_client": [
            {
              "client_id": "572042376333-hp7bhb1h9vah6sd3cn0m5rsd27bc9lnt.apps.googleusercontent.com",
              "client_type": 3
            }
          ]
        }
      }
    }
  ],
  "configuration_version": "1"
}